{
  "type": "object",
  "properties": {
    "offset": {
      "type": "integer",
      "minimum": 0
    },
    "query": {
      "type": "string",
      "maxLength": 100
    },
    "tags": {
      "type": "srting",
      "maxLength": 100
    }
  },
  "oneOf": [
    {"required": ["query"]},
    {"required": ["tags"]}
  ]
}