[
  "drop-post",
  "check-post",
  "get-trending",
  "get-latest",
  "get-post",
  "delete-post",
  "rate-post",
  "get-token",
  "search-post",
  "get-account-posts",
  "get-author-posts",
  "get-accounts",
  "get-trending-filter",
  "set-trending-filter",
  "revoke-token",
  "create-account",
  "delete-account",
  "get-account",
  "get-author",
  "get-account-invite",
  "edit-account",
  "delete-account-member",
  "get-account-members",
  "invite-account-member",
  "check-author-username",
  "reserve-author-username",
  "test"
]
